{
    "schema_userme": {
        "$schema": "https://json-schema.org/draft/2019-09/schema",
        "$id": "http://example.com/example.json",
        "type": "object",
        "default": {},
        "title": "Root Schema",
        "required": [
            "id",
            "email",
            "nickname",
            "role",
            "avatar",
            "emailVerified"
        ],
        "properties": {
            "id": {
                "type": "string",
                "default": "",
                "title": "The id Schema",
                "examples": [
                    "b3f2dcdf-a709-4279-b750-a6ab1a204b8b"
                ]
            },
            "email": {
                "type": "string",
                "default": "",
                "title": "The email Schema",
                "examples": [
                    "cssiayrrxglqixzief@kvhrs.com"
                ]
            },
            "nickname": {
                "type": "null",
                "default": null,
                "title": "The nickname Schema",
                "examples": [
                    null
                ]
            },
            "role": {
                "type": "object",
                "default": {},
                "title": "The role Schema",
                "required": [
                    "name"
                ],
                "properties": {
                    "name": {
                        "type": "string",
                        "default": "",
                        "title": "The name Schema",
                        "examples": [
                            "AUTHOR"
                        ]
                    }
                },
                "examples": [{
                    "name": "AUTHOR"
                }]
            },
            "avatar": {
                "type": "string",
                "default": "",
                "title": "The avatar Schema",
                "examples": [
                    "string"
                ]
            },
            "emailVerified": {
                "type": "boolean",
                "default": false,
                "title": "The emailVerified Schema",
                "examples": [
                    true
                ]
            }
        },
        "examples": [{
            "id": "b3f2dcdf-a709-4279-b750-a6ab1a204b8b",
            "email": "cssiayrrxglqixzief@kvhrs.com",
            "nickname": null,
            "role": {
                "name": "AUTHOR"
            },
            "avatar": "string",
            "emailVerified": true
        }]
    },

    "schema_login": {
        "$schema": "https://json-schema.org/draft/2019-09/schema",
        "$id": "http://example.com/example.json",
        "type": "object",
        "default": {},
        "title": "Root Schema",
        "required": [
            "accessToken",
            "refreshToken"
        ],
        "examples": [{
            "accessToken": "eyJhbGciOiJIUzUxMiJ9.eyJzdWIiOiI0ODA5M2YzYS1mOGUyLTRkN2MtYmY1Mi0zMTRjYjRlMjVhY2EiLCJpYXQiOjE2NTg3NDk3NjYsImV4cCI6MTY1ODgzNjE2Nn0.jsgXMP4smYo2Fy6XqTTnuaDKEsq5rqb09W4_1AKx8D0RcnLY_rCRUwgiSRIOyDwr3tSYZDIGzeYJ5VUnActlpQ",
            "refreshToken": "eyJhbGciOiJIUzUxMiJ9.eyJzdWIiOiI0ODA5M2YzYS1mOGUyLTRkN2MtYmY1Mi0zMTRjYjRlMjVhY2EiLCJpYXQiOjE2NTg3NDk3NjYsImV4cCI6MTY2MTM0MTc2Nn0.N_3RjwSK4cHmJH6ArZpkoGW2qeLQ-U6c-5aV0m9HZLLXymYrverjIbI4ucsP3y-RAkjzRMMGq4g2feej7Ut1FQ"
        }]
    },

    "schema_myinfo": {
        "$schema": "https://json-schema.org/draft/2019-09/schema",
        "$id": "http://example.com/example.json",
        "type": "object",
        "default": {},
        "title": "Root Schema",
        "required": [
            "id",
            "userId",
            "avatar",
            "firstName",
            "lastName",
            "job",
            "location",
            "company",
            "website",
            "twitter",
            "biography"
        ],
        "properties": {
            "id": {
                "type": "string",
                "default": "",
                "title": "The id Schema",
                "examples": [
                    "0eeb9d98-5efc-413f-b039-6dfd7f99129c"
                ]
            },
            "userId": {
                "type": "string",
                "default": "",
                "title": "The userId Schema",
                "examples": [
                    "b3f2dcdf-a709-4279-b750-a6ab1a204b8b"
                ]
            },
            "avatar": {
                "type": "string",
                "default": "",
                "title": "The avatar Schema",
                "examples": [
                    "string"
                ]
            },
            "firstName": {
                "type": "string",
                "default": "",
                "title": "The firstName Schema",
                "examples": [
                    "Shrek"
                ]
            },
            "lastName": {
                "type": "string",
                "default": "",
                "title": "The lastName Schema",
                "examples": [
                    "Theorge"
                ]
            },
            "job": {
                "type": "string",
                "default": "",
                "title": "The job Schema",
                "examples": [
                    "string"
                ]
            },
            "location": {
                "type": "string",
                "default": "",
                "title": "The location Schema",
                "examples": [
                    "Swamp"
                ]
            },
            "company": {
                "type": "string",
                "default": "",
                "title": "The company Schema",
                "examples": [
                    "string"
                ]
            },
            "website": {
                "type": "string",
                "default": "",
                "title": "The website Schema",
                "examples": [
                    "string"
                ]
            },
            "twitter": {
                "type": "string",
                "default": "",
                "title": "The twitter Schema",
                "examples": [
                    "string"
                ]
            },
            "biography": {
                "type": "string",
                "default": "",
                "title": "The biography Schema",
                "examples": [
                    "string"
                ]
            }
        },
        "examples": [{
            "id": "0eeb9d98-5efc-413f-b039-6dfd7f99129c",
            "userId": "b3f2dcdf-a709-4279-b750-a6ab1a204b8b",
            "avatar": "string",
            "firstName": "Shrek",
            "lastName": "Theorge",
            "job": "string",
            "location": "Swamp",
            "company": "string",
            "website": "string",
            "twitter": "string",
            "biography": "string"
        }]
    },

    "schema_setinfo": {
        "$schema": "https://json-schema.org/draft/2019-09/schema",
        "$id": "http://example.com/example.json",
        "type": "object",
        "default": {},
        "title": "Root Schema",
        "required": [
            "message"
        ],
        "properties": {
            "message": {
                "type": "string",
                "default": "",
                "title": "The message Schema",
                "examples": [
                    "Success. Your profile has been updated."
                ]
            }
        },
        "examples": [{
            "message": "Success. Your profile has been updated."
        }]
    },

    "schema_overview": {
        "$schema": "https://json-schema.org/draft/2019-09/schema",
        "$id": "http://example.com/example.json",
        "type": "object",
        "default": {},
        "title": "Root Schema",
        "required": [
            "id",
            "userId",
            "firstName",
            "lastName",
            "avatar",
            "biography",
            "schoolName",
            "schoolId",
            "numberOfSubscribers",
            "courses",
            "articles",
            "printFollowButton"
        ],
        "properties": {
            "id": {
                "type": "string",
                "default": "",
                "title": "The id Schema",
                "examples": [
                    "0eeb9d98-5efc-413f-b039-6dfd7f99129c"
                ]
            },
            "userId": {
                "type": "string",
                "default": "",
                "title": "The userId Schema",
                "examples": [
                    "b3f2dcdf-a709-4279-b750-a6ab1a204b8b"
                ]
            },
            "firstName": {
                "type": "string",
                "default": "",
                "title": "The firstName Schema",
                "examples": [
                    "Shrek"
                ]
            },
            "lastName": {
                "type": "string",
                "default": "",
                "title": "The lastName Schema",
                "examples": [
                    "Theorge"
                ]
            },
            "avatar": {
                "type": "string",
                "default": "",
                "title": "The avatar Schema",
                "examples": [
                    "string"
                ]
            },
            "biography": {
                "type": "string",
                "default": "",
                "title": "The biography Schema",
                "examples": [
                    "string"
                ]
            },
            "schoolName": {
                "type": "string",
                "default": "",
                "title": "The schoolName Schema",
                "examples": [
                    ""
                ]
            },
            "schoolId": {
                "type": "string",
                "default": "",
                "title": "The schoolId Schema",
                "examples": [
                    ""
                ]
            },
            "numberOfSubscribers": {
                "type": "integer",
                "default": 0,
                "title": "The numberOfSubscribers Schema",
                "examples": [
                    0
                ]
            },
            "courses": {
                "type": "array",
                "default": [],
                "title": "The courses Schema",
                "items": {},
                "examples": [
                    []
                ]
            },
            "articles": {
                "type": "array",
                "default": [],
                "title": "The articles Schema",
                "items": {
                    "type": "object",
                    "title": "A Schema",
                    "required": [
                        "id",
                        "name",
                        "text",
                        "image"
                    ],
                    "properties": {
                        "id": {
                            "type": "string",
                            "title": "The id Schema",
                            "examples": [
                                "4e945a64-2a39-4282-b3c2-597405872081",
                                "db26cfa6-5d88-4de9-b998-639b6577d528",
                                "246a2edc-4071-4e10-8d0d-dbdbb75c4630",
                                "e0d3da3e-0677-47ee-9151-50d7e944926d",
                                "b721119f-7cec-4d3d-84fd-0a9961a14761",
                                "825e36bc-8821-4913-840a-8124edda6754",
                                "a1f156fc-f23e-44be-a44e-d249e68b2289",
                                "de6b7828-c95e-4333-b152-ba4f5b70868e",
                                "57e4fb4b-a1ff-47e2-92fa-ba00f5367878",
                                "48c8c29a-6a1e-4e83-bc68-eb391e652cf1",
                                "99c832cc-61cc-4353-8de4-2035266205a3",
                                "29059d49-f2d7-4a46-b3c5-0b76afc75886",
                                "1b747e8b-4b2c-4c6f-8150-e1f2830c0f59",
                                "787e8f8d-52bc-459c-b8a5-d8276219e07c",
                                "e0662f2f-b418-432d-9d74-1adb4305b201"
                            ]
                        },
                        "name": {
                            "type": "string",
                            "title": "The name Schema",
                            "examples": [
                                "swamp"
                            ]
                        },
                        "text": {
                            "type": "string",
                            "title": "The text Schema",
                            "examples": [
                                "\u003cp\u003e45454\u003c/p\u003e\n"
                            ]
                        },
                        "image": {
                            "type": "string",
                            "title": "The image Schema",
                            "examples": [
                                "https://knewless.tk/assets/images/30b78a06-7a6f-4b51-b939-fc20dc821410.jpg"
                            ]
                        }
                    },
                    "examples": [{
                        "id": "4e945a64-2a39-4282-b3c2-597405872081",
                        "name": "swamp",
                        "text": "\u003cp\u003e45454\u003c/p\u003e\n",
                        "image": "https://knewless.tk/assets/images/30b78a06-7a6f-4b51-b939-fc20dc821410.jpg"
                    },
                    {
                        "id": "db26cfa6-5d88-4de9-b998-639b6577d528",
                        "name": "swamp",
                        "text": "\u003cp\u003e45454\u003c/p\u003e\n",
                        "image": "https://knewless.tk/assets/images/30b78a06-7a6f-4b51-b939-fc20dc821410.jpg"
                    },
                    {
                        "id": "246a2edc-4071-4e10-8d0d-dbdbb75c4630",
                        "name": "swamp",
                        "text": "\u003cp\u003e45454\u003c/p\u003e\n",
                        "image": "https://knewless.tk/assets/images/30b78a06-7a6f-4b51-b939-fc20dc821410.jpg"
                    },
                    {
                        "id": "e0d3da3e-0677-47ee-9151-50d7e944926d",
                        "name": "swamp",
                        "text": "\u003cp\u003e45454\u003c/p\u003e\n",
                        "image": "https://knewless.tk/assets/images/30b78a06-7a6f-4b51-b939-fc20dc821410.jpg"
                    },
                    {
                        "id": "b721119f-7cec-4d3d-84fd-0a9961a14761",
                        "name": "swamp",
                        "text": "\u003cp\u003e45454\u003c/p\u003e\n",
                        "image": "https://knewless.tk/assets/images/30b78a06-7a6f-4b51-b939-fc20dc821410.jpg"
                    },
                    {
                        "id": "825e36bc-8821-4913-840a-8124edda6754",
                        "name": "swamp",
                        "text": "\u003cp\u003e45454\u003c/p\u003e\n",
                        "image": "https://knewless.tk/assets/images/30b78a06-7a6f-4b51-b939-fc20dc821410.jpg"
                    },
                    {
                        "id": "a1f156fc-f23e-44be-a44e-d249e68b2289",
                        "name": "swamp",
                        "text": "\u003cp\u003e45454\u003c/p\u003e\n",
                        "image": "https://knewless.tk/assets/images/30b78a06-7a6f-4b51-b939-fc20dc821410.jpg"
                    },
                    {
                        "id": "de6b7828-c95e-4333-b152-ba4f5b70868e",
                        "name": "swamp",
                        "text": "\u003cp\u003e45454\u003c/p\u003e\n",
                        "image": "https://knewless.tk/assets/images/30b78a06-7a6f-4b51-b939-fc20dc821410.jpg"
                    },
                    {
                        "id": "57e4fb4b-a1ff-47e2-92fa-ba00f5367878",
                        "name": "swamp",
                        "text": "\u003cp\u003e45454\u003c/p\u003e\n",
                        "image": "https://knewless.tk/assets/images/30b78a06-7a6f-4b51-b939-fc20dc821410.jpg"
                    },
                    {
                        "id": "48c8c29a-6a1e-4e83-bc68-eb391e652cf1",
                        "name": "swamp",
                        "text": "\u003cp\u003e45454\u003c/p\u003e\n",
                        "image": "https://knewless.tk/assets/images/30b78a06-7a6f-4b51-b939-fc20dc821410.jpg"
                    },
                    {
                        "id": "99c832cc-61cc-4353-8de4-2035266205a3",
                        "name": "swamp",
                        "text": "\u003cp\u003e45454\u003c/p\u003e\n",
                        "image": "https://knewless.tk/assets/images/30b78a06-7a6f-4b51-b939-fc20dc821410.jpg"
                    },
                    {
                        "id": "29059d49-f2d7-4a46-b3c5-0b76afc75886",
                        "name": "swamp",
                        "text": "\u003cp\u003e45454\u003c/p\u003e\n",
                        "image": "https://knewless.tk/assets/images/30b78a06-7a6f-4b51-b939-fc20dc821410.jpg"
                    },
                    {
                        "id": "1b747e8b-4b2c-4c6f-8150-e1f2830c0f59",
                        "name": "swamp",
                        "text": "\u003cp\u003e45454\u003c/p\u003e\n",
                        "image": "https://knewless.tk/assets/images/30b78a06-7a6f-4b51-b939-fc20dc821410.jpg"
                    },
                    {
                        "id": "787e8f8d-52bc-459c-b8a5-d8276219e07c",
                        "name": "swamp",
                        "text": "\u003cp\u003e45454\u003c/p\u003e\n",
                        "image": "https://knewless.tk/assets/images/30b78a06-7a6f-4b51-b939-fc20dc821410.jpg"
                    },
                    {
                        "id": "e0662f2f-b418-432d-9d74-1adb4305b201",
                        "name": "swamp",
                        "text": "\u003cp\u003e45454\u003c/p\u003e\n",
                        "image": "https://knewless.tk/assets/images/30b78a06-7a6f-4b51-b939-fc20dc821410.jpg"
                    }]
                },
                "examples": [
                    [{
                        "id": "4e945a64-2a39-4282-b3c2-597405872081",
                        "name": "swamp",
                        "text": "\u003cp\u003e45454\u003c/p\u003e\n",
                        "image": "https://knewless.tk/assets/images/30b78a06-7a6f-4b51-b939-fc20dc821410.jpg"
                    },
                    {
                        "id": "db26cfa6-5d88-4de9-b998-639b6577d528",
                        "name": "swamp",
                        "text": "\u003cp\u003e45454\u003c/p\u003e\n",
                        "image": "https://knewless.tk/assets/images/30b78a06-7a6f-4b51-b939-fc20dc821410.jpg"
                    },
                    {
                        "id": "246a2edc-4071-4e10-8d0d-dbdbb75c4630",
                        "name": "swamp",
                        "text": "\u003cp\u003e45454\u003c/p\u003e\n",
                        "image": "https://knewless.tk/assets/images/30b78a06-7a6f-4b51-b939-fc20dc821410.jpg"
                    },
                    {
                        "id": "e0d3da3e-0677-47ee-9151-50d7e944926d",
                        "name": "swamp",
                        "text": "\u003cp\u003e45454\u003c/p\u003e\n",
                        "image": "https://knewless.tk/assets/images/30b78a06-7a6f-4b51-b939-fc20dc821410.jpg"
                    },
                    {
                        "id": "b721119f-7cec-4d3d-84fd-0a9961a14761",
                        "name": "swamp",
                        "text": "\u003cp\u003e45454\u003c/p\u003e\n",
                        "image": "https://knewless.tk/assets/images/30b78a06-7a6f-4b51-b939-fc20dc821410.jpg"
                    },
                    {
                        "id": "825e36bc-8821-4913-840a-8124edda6754",
                        "name": "swamp",
                        "text": "\u003cp\u003e45454\u003c/p\u003e\n",
                        "image": "https://knewless.tk/assets/images/30b78a06-7a6f-4b51-b939-fc20dc821410.jpg"
                    },
                    {
                        "id": "a1f156fc-f23e-44be-a44e-d249e68b2289",
                        "name": "swamp",
                        "text": "\u003cp\u003e45454\u003c/p\u003e\n",
                        "image": "https://knewless.tk/assets/images/30b78a06-7a6f-4b51-b939-fc20dc821410.jpg"
                    },
                    {
                        "id": "de6b7828-c95e-4333-b152-ba4f5b70868e",
                        "name": "swamp",
                        "text": "\u003cp\u003e45454\u003c/p\u003e\n",
                        "image": "https://knewless.tk/assets/images/30b78a06-7a6f-4b51-b939-fc20dc821410.jpg"
                    },
                    {
                        "id": "57e4fb4b-a1ff-47e2-92fa-ba00f5367878",
                        "name": "swamp",
                        "text": "\u003cp\u003e45454\u003c/p\u003e\n",
                        "image": "https://knewless.tk/assets/images/30b78a06-7a6f-4b51-b939-fc20dc821410.jpg"
                    },
                    {
                        "id": "48c8c29a-6a1e-4e83-bc68-eb391e652cf1",
                        "name": "swamp",
                        "text": "\u003cp\u003e45454\u003c/p\u003e\n",
                        "image": "https://knewless.tk/assets/images/30b78a06-7a6f-4b51-b939-fc20dc821410.jpg"
                    },
                    {
                        "id": "99c832cc-61cc-4353-8de4-2035266205a3",
                        "name": "swamp",
                        "text": "\u003cp\u003e45454\u003c/p\u003e\n",
                        "image": "https://knewless.tk/assets/images/30b78a06-7a6f-4b51-b939-fc20dc821410.jpg"
                    },
                    {
                        "id": "29059d49-f2d7-4a46-b3c5-0b76afc75886",
                        "name": "swamp",
                        "text": "\u003cp\u003e45454\u003c/p\u003e\n",
                        "image": "https://knewless.tk/assets/images/30b78a06-7a6f-4b51-b939-fc20dc821410.jpg"
                    },
                    {
                        "id": "1b747e8b-4b2c-4c6f-8150-e1f2830c0f59",
                        "name": "swamp",
                        "text": "\u003cp\u003e45454\u003c/p\u003e\n",
                        "image": "https://knewless.tk/assets/images/30b78a06-7a6f-4b51-b939-fc20dc821410.jpg"
                    },
                    {
                        "id": "787e8f8d-52bc-459c-b8a5-d8276219e07c",
                        "name": "swamp",
                        "text": "\u003cp\u003e45454\u003c/p\u003e\n",
                        "image": "https://knewless.tk/assets/images/30b78a06-7a6f-4b51-b939-fc20dc821410.jpg"
                    },
                    {
                        "id": "e0662f2f-b418-432d-9d74-1adb4305b201",
                        "name": "swamp",
                        "text": "\u003cp\u003e45454\u003c/p\u003e\n",
                        "image": "https://knewless.tk/assets/images/30b78a06-7a6f-4b51-b939-fc20dc821410.jpg"
                    }]
                ]
            },
            "printFollowButton": {
                "type": "boolean",
                "default": false,
                "title": "The printFollowButton Schema",
                "examples": [
                    true
                ]
            }
        },
        "examples": [{
            "id": "0eeb9d98-5efc-413f-b039-6dfd7f99129c",
            "userId": "b3f2dcdf-a709-4279-b750-a6ab1a204b8b",
            "firstName": "Shrek",
            "lastName": "Theorge",
            "avatar": "string",
            "biography": "string",
            "schoolName": "",
            "schoolId": "",
            "numberOfSubscribers": 0,
            "courses": [],
            "articles": [{
                "id": "4e945a64-2a39-4282-b3c2-597405872081",
                "name": "swamp",
                "text": "\u003cp\u003e45454\u003c/p\u003e\n",
                "image": "https://knewless.tk/assets/images/30b78a06-7a6f-4b51-b939-fc20dc821410.jpg"
            },
            {
                "id": "db26cfa6-5d88-4de9-b998-639b6577d528",
                "name": "swamp",
                "text": "\u003cp\u003e45454\u003c/p\u003e\n",
                "image": "https://knewless.tk/assets/images/30b78a06-7a6f-4b51-b939-fc20dc821410.jpg"
            },
            {
                "id": "246a2edc-4071-4e10-8d0d-dbdbb75c4630",
                "name": "swamp",
                "text": "\u003cp\u003e45454\u003c/p\u003e\n",
                "image": "https://knewless.tk/assets/images/30b78a06-7a6f-4b51-b939-fc20dc821410.jpg"
            },
            {
                "id": "e0d3da3e-0677-47ee-9151-50d7e944926d",
                "name": "swamp",
                "text": "\u003cp\u003e45454\u003c/p\u003e\n",
                "image": "https://knewless.tk/assets/images/30b78a06-7a6f-4b51-b939-fc20dc821410.jpg"
            },
            {
                "id": "b721119f-7cec-4d3d-84fd-0a9961a14761",
                "name": "swamp",
                "text": "\u003cp\u003e45454\u003c/p\u003e\n",
                "image": "https://knewless.tk/assets/images/30b78a06-7a6f-4b51-b939-fc20dc821410.jpg"
            },
            {
                "id": "825e36bc-8821-4913-840a-8124edda6754",
                "name": "swamp",
                "text": "\u003cp\u003e45454\u003c/p\u003e\n",
                "image": "https://knewless.tk/assets/images/30b78a06-7a6f-4b51-b939-fc20dc821410.jpg"
            },
            {
                "id": "a1f156fc-f23e-44be-a44e-d249e68b2289",
                "name": "swamp",
                "text": "\u003cp\u003e45454\u003c/p\u003e\n",
                "image": "https://knewless.tk/assets/images/30b78a06-7a6f-4b51-b939-fc20dc821410.jpg"
            },
            {
                "id": "de6b7828-c95e-4333-b152-ba4f5b70868e",
                "name": "swamp",
                "text": "\u003cp\u003e45454\u003c/p\u003e\n",
                "image": "https://knewless.tk/assets/images/30b78a06-7a6f-4b51-b939-fc20dc821410.jpg"
            },
            {
                "id": "57e4fb4b-a1ff-47e2-92fa-ba00f5367878",
                "name": "swamp",
                "text": "\u003cp\u003e45454\u003c/p\u003e\n",
                "image": "https://knewless.tk/assets/images/30b78a06-7a6f-4b51-b939-fc20dc821410.jpg"
            },
            {
                "id": "48c8c29a-6a1e-4e83-bc68-eb391e652cf1",
                "name": "swamp",
                "text": "\u003cp\u003e45454\u003c/p\u003e\n",
                "image": "https://knewless.tk/assets/images/30b78a06-7a6f-4b51-b939-fc20dc821410.jpg"
            },
            {
                "id": "99c832cc-61cc-4353-8de4-2035266205a3",
                "name": "swamp",
                "text": "\u003cp\u003e45454\u003c/p\u003e\n",
                "image": "https://knewless.tk/assets/images/30b78a06-7a6f-4b51-b939-fc20dc821410.jpg"
            },
            {
                "id": "29059d49-f2d7-4a46-b3c5-0b76afc75886",
                "name": "swamp",
                "text": "\u003cp\u003e45454\u003c/p\u003e\n",
                "image": "https://knewless.tk/assets/images/30b78a06-7a6f-4b51-b939-fc20dc821410.jpg"
            },
            {
                "id": "1b747e8b-4b2c-4c6f-8150-e1f2830c0f59",
                "name": "swamp",
                "text": "\u003cp\u003e45454\u003c/p\u003e\n",
                "image": "https://knewless.tk/assets/images/30b78a06-7a6f-4b51-b939-fc20dc821410.jpg"
            },
            {
                "id": "787e8f8d-52bc-459c-b8a5-d8276219e07c",
                "name": "swamp",
                "text": "\u003cp\u003e45454\u003c/p\u003e\n",
                "image": "https://knewless.tk/assets/images/30b78a06-7a6f-4b51-b939-fc20dc821410.jpg"
            },
            {
                "id": "e0662f2f-b418-432d-9d74-1adb4305b201",
                "name": "swamp",
                "text": "\u003cp\u003e45454\u003c/p\u003e\n",
                "image": "https://knewless.tk/assets/images/30b78a06-7a6f-4b51-b939-fc20dc821410.jpg"
            }],
            "printFollowButton": true
        }]
    },

    "schema_postarticle": {
        "$schema": "https://json-schema.org/draft/2019-09/schema",
        "$id": "http://example.com/example.json",
        "type": "object",
        "default": {},
        "title": "Root Schema",
        "required": [
            "id",
            "name",
            "text",
            "image",
            "authorId",
            "authorName"
        ],
        "properties": {
            "id": {
                "type": "string",
                "default": "",
                "title": "The id Schema",
                "examples": [
                    "06b187d7-9308-4467-a75e-1ed610fa0e60"
                ]
            },
            "name": {
                "type": "string",
                "default": "",
                "title": "The name Schema",
                "examples": [
                    "swamp"
                ]
            },
            "text": {
                "type": "string",
                "default": "",
                "title": "The text Schema",
                "examples": [
                    "\u003cp\u003e45454\u003c/p\u003e\n"
                ]
            },
            "image": {
                "type": "string",
                "default": "",
                "title": "The image Schema",
                "examples": [
                    "https://knewless.tk/assets/images/30b78a06-7a6f-4b51-b939-fc20dc821410.jpg"
                ]
            },
            "authorId": {
                "type": "string",
                "default": "",
                "title": "The authorId Schema",
                "examples": [
                    "901dff5a-d5d4-4ccc-97b3-bb4648a20bc1"
                ]
            },
            "authorName": {
                "type": "string",
                "default": "",
                "title": "The authorName Schema",
                "examples": [
                    "Shrek1 Theorge2"
                ]
            }
        },
        "examples": [{
            "id": "06b187d7-9308-4467-a75e-1ed610fa0e60",
            "name": "swamp",
            "text": "\u003cp\u003e45454\u003c/p\u003e\n",
            "image": "https://knewless.tk/assets/images/30b78a06-7a6f-4b51-b939-fc20dc821410.jpg",
            "authorId": "901dff5a-d5d4-4ccc-97b3-bb4648a20bc1",
            "authorName": "Shrek1 Theorge2"
        }]
    },

    "schema_getinfoarticle": {
        "$schema": "https://json-schema.org/draft/2019-09/schema",
        "$id": "http://example.com/example.json",
        "type": "array",
        "default": [],
        "title": "Root Schema",
        "items": {
            "type": "object",
            "title": "A Schema",
            "required": [
                "id",
                "name",
                "text",
                "image",
                "authorId",
                "authorName"
            ],
            "properties": {
                "id": {
                    "type": "string",
                    "title": "The id Schema",
                    "examples": [
                        "8828adb0-838a-40fb-bcc6-1afd3e8e3ea4",
                        "ea4e1e07-f8f8-4486-8a7c-13a9254251cf",
                        "fdad5fa3-919d-4492-a836-a9fde1ff8f72",
                        "4d0f7d75-7392-44b0-836f-4e64812c6da0"
                    ]
                },
                "name": {
                    "type": "string",
                    "title": "The name Schema",
                    "examples": [
                        "swamp"
                    ]
                },
                "text": {
                    "type": "string",
                    "title": "The text Schema",
                    "examples": [
                        "\u003cp\u003e45454\u003c/p\u003e\n"
                    ]
                },
                "image": {
                    "type": "string",
                    "title": "The image Schema",
                    "examples": [
                        "https://knewless.tk/assets/images/30b78a06-7a6f-4b51-b939-fc20dc821410.jpg"
                    ]
                },
                "authorId": {
                    "type": "string",
                    "title": "The authorId Schema",
                    "examples": [
                        "901dff5a-d5d4-4ccc-97b3-bb4648a20bc1"
                    ]
                },
                "authorName": {
                    "type": "string",
                    "title": "The authorName Schema",
                    "examples": [
                        "Shrek1 Theorge2"
                    ]
                }
            },
            "examples": [{
                "id": "8828adb0-838a-40fb-bcc6-1afd3e8e3ea4",
                "name": "swamp",
                "text": "\u003cp\u003e45454\u003c/p\u003e\n",
                "image": "https://knewless.tk/assets/images/30b78a06-7a6f-4b51-b939-fc20dc821410.jpg",
                "authorId": "901dff5a-d5d4-4ccc-97b3-bb4648a20bc1",
                "authorName": "Shrek1 Theorge2"
            },
            {
                "id": "ea4e1e07-f8f8-4486-8a7c-13a9254251cf",
                "name": "swamp",
                "text": "\u003cp\u003e45454\u003c/p\u003e\n",
                "image": "https://knewless.tk/assets/images/30b78a06-7a6f-4b51-b939-fc20dc821410.jpg",
                "authorId": "901dff5a-d5d4-4ccc-97b3-bb4648a20bc1",
                "authorName": "Shrek1 Theorge2"
            },
            {
                "id": "fdad5fa3-919d-4492-a836-a9fde1ff8f72",
                "name": "swamp",
                "text": "\u003cp\u003e45454\u003c/p\u003e\n",
                "image": "https://knewless.tk/assets/images/30b78a06-7a6f-4b51-b939-fc20dc821410.jpg",
                "authorId": "901dff5a-d5d4-4ccc-97b3-bb4648a20bc1",
                "authorName": "Shrek1 Theorge2"
            },
            {
                "id": "4d0f7d75-7392-44b0-836f-4e64812c6da0",
                "name": "swamp",
                "text": "\u003cp\u003e45454\u003c/p\u003e\n",
                "image": "https://knewless.tk/assets/images/30b78a06-7a6f-4b51-b939-fc20dc821410.jpg",
                "authorId": "901dff5a-d5d4-4ccc-97b3-bb4648a20bc1",
                "authorName": "Shrek1 Theorge2"
            }]
        },
        "examples": [
            [{
                "id": "8828adb0-838a-40fb-bcc6-1afd3e8e3ea4",
                "name": "swamp",
                "text": "\u003cp\u003e45454\u003c/p\u003e\n",
                "image": "https://knewless.tk/assets/images/30b78a06-7a6f-4b51-b939-fc20dc821410.jpg",
                "authorId": "901dff5a-d5d4-4ccc-97b3-bb4648a20bc1",
                "authorName": "Shrek1 Theorge2"
            },
            {
                "id": "ea4e1e07-f8f8-4486-8a7c-13a9254251cf",
                "name": "swamp",
                "text": "\u003cp\u003e45454\u003c/p\u003e\n",
                "image": "https://knewless.tk/assets/images/30b78a06-7a6f-4b51-b939-fc20dc821410.jpg",
                "authorId": "901dff5a-d5d4-4ccc-97b3-bb4648a20bc1",
                "authorName": "Shrek1 Theorge2"
            },
            {
                "id": "fdad5fa3-919d-4492-a836-a9fde1ff8f72",
                "name": "swamp",
                "text": "\u003cp\u003e45454\u003c/p\u003e\n",
                "image": "https://knewless.tk/assets/images/30b78a06-7a6f-4b51-b939-fc20dc821410.jpg",
                "authorId": "901dff5a-d5d4-4ccc-97b3-bb4648a20bc1",
                "authorName": "Shrek1 Theorge2"
            },
            {
                "id": "4d0f7d75-7392-44b0-836f-4e64812c6da0",
                "name": "swamp",
                "text": "\u003cp\u003e45454\u003c/p\u003e\n",
                "image": "https://knewless.tk/assets/images/30b78a06-7a6f-4b51-b939-fc20dc821410.jpg",
                "authorId": "901dff5a-d5d4-4ccc-97b3-bb4648a20bc1",
                "authorName": "Shrek1 Theorge2"
            }]
        ]
    },

    "schema_getarticlebyid": {
        "id":null,
        "name":"swamp",
        "text":"<p>45454</p>\n",
        "image":"https://knewless.tk/assets/images/30b78a06-7a6f-4b51-b939-fc20dc821410.jpg",
        "author":{
           "id":"901dff5a-d5d4-4ccc-97b3-bb4648a20bc1",
           "userId":"b10ae1cd-976b-4800-9623-dd4cfc203f23",
           "name":"Shrek1 Theorge2",
           "biography":"string",
           "avatar":"string",
           "articles":[
              [
                 "Object"
              ],
              [
                 "Object"
              ],
              [
                 "Object"
              ],
              [
                 "Object"
              ],
              [
                 "Object"
              ],
              [
                 "Object"
              ],
              [
                 "Object"
              ],
              [
                 "Object"
              ]
           ]
        },
        "favourite":false
     },

    "schema_postarticlecomment": {
        "$schema": "https://json-schema.org/draft/2019-09/schema",
        "$id": "http://example.com/example.json",
        "type": "object",
        "default": {},
        "title": "Root Schema",
        "required": [
            "id",
            "createdAt",
            "updatedAt",
            "text",
            "user",
            "articleId",
            "sourceId"
        ],
        "properties": {
            "id": {
                "type": "string",
                "default": "",
                "title": "The id Schema",
                "examples": [
                    "e2714aa8-e4db-43cb-9238-5c201c6ad371"
                ]
            },
            "createdAt": {
                "type": "string",
                "default": "",
                "title": "The createdAt Schema",
                "examples": [
                    "2022-07-25T12:36:27.847Z"
                ]
            },
            "updatedAt": {
                "type": "string",
                "default": "",
                "title": "The updatedAt Schema",
                "examples": [
                    "2022-07-25T12:36:27.847Z"
                ]
            },
            "text": {
                "type": "string",
                "default": "",
                "title": "The text Schema",
                "examples": [
                    "comment 12121"
                ]
            },
            "user": {
                "type": "object",
                "default": {},
                "title": "The user Schema",
                "required": [
                    "id",
                    "username",
                    "email",
                    "role"
                ],
                "properties": {
                    "id": {
                        "type": "string",
                        "default": "",
                        "title": "The id Schema",
                        "examples": [
                            "b10ae1cd-976b-4800-9623-dd4cfc203f23"
                        ]
                    },
                    "username": {
                        "type": "null",
                        "default": null,
                        "title": "The username Schema",
                        "examples": [
                            null
                        ]
                    },
                    "email": {
                        "type": "string",
                        "default": "",
                        "title": "The email Schema",
                        "examples": [
                            "sprhwnmrpoelfprqju@nthrl.com"
                        ]
                    },
                    "role": {
                        "type": "string",
                        "default": "",
                        "title": "The role Schema",
                        "examples": [
                            "AUTHOR"
                        ]
                    }
                },
                "examples": [{
                    "id": "b10ae1cd-976b-4800-9623-dd4cfc203f23",
                    "username": null,
                    "email": "sprhwnmrpoelfprqju@nthrl.com",
                    "role": "AUTHOR"
                }]
            },
            "articleId": {
                "type": "string",
                "default": "",
                "title": "The articleId Schema",
                "examples": [
                    "cb3268a6-2c74-48e5-9b94-a38f3fee04a2"
                ]
            },
            "sourceId": {
                "type": "string",
                "default": "",
                "title": "The sourceId Schema",
                "examples": [
                    "cb3268a6-2c74-48e5-9b94-a38f3fee04a2"
                ]
            }
        },
        "examples": [{
            "id": "e2714aa8-e4db-43cb-9238-5c201c6ad371",
            "createdAt": "2022-07-25T12:36:27.847Z",
            "updatedAt": "2022-07-25T12:36:27.847Z",
            "text": "comment 12121",
            "user": {
                "id": "b10ae1cd-976b-4800-9623-dd4cfc203f23",
                "username": null,
                "email": "sprhwnmrpoelfprqju@nthrl.com",
                "role": "AUTHOR"
            },
            "articleId": "cb3268a6-2c74-48e5-9b94-a38f3fee04a2",
            "sourceId": "cb3268a6-2c74-48e5-9b94-a38f3fee04a2"
        }]
    },

    "schema_getarticlecomment": {
        "$schema": "https://json-schema.org/draft/2019-09/schema",
        "$id": "http://example.com/example.json",
        "type": "array",
        "default": [],
        "title": "Root Schema",
        "items": {
            "type": "object",
            "default": {},
            "title": "A Schema",
            "required": [
                "id",
                "createdAt",
                "updatedAt",
                "text",
                "user",
                "articleId",
                "sourceId"
            ],
            "properties": {
                "id": {
                    "type": "string",
                    "default": "",
                    "title": "The id Schema",
                    "examples": [
                        "e2714aa8-e4db-43cb-9238-5c201c6ad371"
                    ]
                },
                "createdAt": {
                    "type": "string",
                    "default": "",
                    "title": "The createdAt Schema",
                    "examples": [
                        "2022-07-25T12:36:27.847Z"
                    ]
                },
                "updatedAt": {
                    "type": "string",
                    "default": "",
                    "title": "The updatedAt Schema",
                    "examples": [
                        "2022-07-25T12:36:27.847Z"
                    ]
                },
                "text": {
                    "type": "string",
                    "default": "",
                    "title": "The text Schema",
                    "examples": [
                        "comment 12121"
                    ]
                },
                "user": {
                    "type": "object",
                    "default": {},
                    "title": "The user Schema",
                    "required": [
                        "id",
                        "username",
                        "email",
                        "role"
                    ],
                    "properties": {
                        "id": {
                            "type": "string",
                            "default": "",
                            "title": "The id Schema",
                            "examples": [
                                "b10ae1cd-976b-4800-9623-dd4cfc203f23"
                            ]
                        },
                        "username": {
                            "type": "null",
                            "default": null,
                            "title": "The username Schema",
                            "examples": [
                                null
                            ]
                        },
                        "email": {
                            "type": "string",
                            "default": "",
                            "title": "The email Schema",
                            "examples": [
                                "sprhwnmrpoelfprqju@nthrl.com"
                            ]
                        },
                        "role": {
                            "type": "string",
                            "default": "",
                            "title": "The role Schema",
                            "examples": [
                                "AUTHOR"
                            ]
                        }
                    },
                    "examples": [{
                        "id": "b10ae1cd-976b-4800-9623-dd4cfc203f23",
                        "username": null,
                        "email": "sprhwnmrpoelfprqju@nthrl.com",
                        "role": "AUTHOR"
                    }]
                },
                "articleId": {
                    "type": "string",
                    "default": "",
                    "title": "The articleId Schema",
                    "examples": [
                        "cb3268a6-2c74-48e5-9b94-a38f3fee04a2"
                    ]
                },
                "sourceId": {
                    "type": "string",
                    "default": "",
                    "title": "The sourceId Schema",
                    "examples": [
                        "cb3268a6-2c74-48e5-9b94-a38f3fee04a2"
                    ]
                }
            },
            "examples": [{
                "id": "e2714aa8-e4db-43cb-9238-5c201c6ad371",
                "createdAt": "2022-07-25T12:36:27.847Z",
                "updatedAt": "2022-07-25T12:36:27.847Z",
                "text": "comment 12121",
                "user": {
                    "id": "b10ae1cd-976b-4800-9623-dd4cfc203f23",
                    "username": null,
                    "email": "sprhwnmrpoelfprqju@nthrl.com",
                    "role": "AUTHOR"
                },
                "articleId": "cb3268a6-2c74-48e5-9b94-a38f3fee04a2",
                "sourceId": "cb3268a6-2c74-48e5-9b94-a38f3fee04a2"
            }]
        },
        "examples": [
            [{
                "id": "e2714aa8-e4db-43cb-9238-5c201c6ad371",
                "createdAt": "2022-07-25T12:36:27.847Z",
                "updatedAt": "2022-07-25T12:36:27.847Z",
                "text": "comment 12121",
                "user": {
                    "id": "b10ae1cd-976b-4800-9623-dd4cfc203f23",
                    "username": null,
                    "email": "sprhwnmrpoelfprqju@nthrl.com",
                    "role": "AUTHOR"
                },
                "articleId": "cb3268a6-2c74-48e5-9b94-a38f3fee04a2",
                "sourceId": "cb3268a6-2c74-48e5-9b94-a38f3fee04a2"
            }]
        ]
    }

}